booth.vcd
$date
	Tue Apr 28 14:36:04 2020
$end
$version
	Icarus Verilog
$end
$timescale
	1s
$end
$scope module booth_testbench $end
$var wire 1 ! sftQ $end
$var wire 1 " sftA $end
$var wire 1 # qm1 $end
$var wire 32 $ product [31:0] $end
$var wire 1 % ldff $end
$var wire 1 & ldcnt $end
$var wire 1 ' ldQ $end
$var wire 1 ( ldM $end
$var wire 1 ) ldA $end
$var wire 1 * eqz $end
$var wire 1 + done $end
$var wire 1 , decr $end
$var wire 1 - clrff $end
$var wire 1 . clrQ $end
$var wire 1 / clrA $end
$var wire 1 0 addsub $end
$var reg 1 1 clk $end
$var reg 16 2 data_in [15:0] $end
$var reg 1 3 start $end
$scope module CON $end
$var wire 1 1 clk $end
$var wire 1 3 start $end
$var wire 1 # qm1 $end
$var wire 1 4 q0 $end
$var wire 1 * eqz $end
$var reg 1 0 addsub $end
$var reg 1 / clrA $end
$var reg 1 . clrQ $end
$var reg 1 - clrff $end
$var reg 1 , decr $end
$var reg 1 + done $end
$var reg 1 ) ldA $end
$var reg 1 ( ldM $end
$var reg 1 ' ldQ $end
$var reg 1 & ldcnt $end
$var reg 1 % ldff $end
$var reg 1 " sftA $end
$var reg 1 ! sftQ $end
$var reg 3 5 state [2:0] $end
$upscope $end
$scope module DP $end
$var wire 1 0 addsub $end
$var wire 1 1 clk $end
$var wire 1 / clrA $end
$var wire 1 . clrQ $end
$var wire 1 - clrff $end
$var wire 16 6 data_in [15:0] $end
$var wire 1 , decr $end
$var wire 1 ) ldA $end
$var wire 1 ( ldM $end
$var wire 1 ' ldQ $end
$var wire 1 & ldcnt $end
$var wire 1 % ldff $end
$var wire 1 " sftA $end
$var wire 1 ! sftQ $end
$var wire 1 # qm1 $end
$var wire 1 * eqz $end
$var wire 5 7 count [4:0] $end
$var wire 16 8 Z [15:0] $end
$var wire 16 9 Q [15:0] $end
$var wire 16 : M [15:0] $end
$var wire 16 ; A [15:0] $end
$scope module AR $end
$var wire 1 1 clk $end
$var wire 1 / clr $end
$var wire 1 ) ld $end
$var wire 1 < serial_in $end
$var wire 1 " sft $end
$var wire 16 = data_in [15:0] $end
$var reg 16 > data_out [15:0] $end
$upscope $end
$scope module AS $end
$var wire 1 0 addsub $end
$var wire 16 ? in1 [15:0] $end
$var wire 16 @ in2 [15:0] $end
$var reg 16 A out [15:0] $end
$upscope $end
$scope module CN $end
$var wire 1 1 clk $end
$var wire 1 , decr $end
$var wire 1 & ldcnt $end
$var reg 5 B data_out [4:0] $end
$upscope $end
$scope module MR $end
$var wire 1 1 clk $end
$var wire 16 C data_in [15:0] $end
$var wire 1 ( load $end
$var reg 16 D data_out [15:0] $end
$upscope $end
$scope module QM1 $end
$var wire 1 1 clk $end
$var wire 1 - clr $end
$var wire 1 E d $end
$var wire 1 % ldff $end
$var reg 1 # q $end
$upscope $end
$scope module QR $end
$var wire 1 1 clk $end
$var wire 1 . clr $end
$var wire 16 F data_in [15:0] $end
$var wire 1 ' ld $end
$var wire 1 G serial_in $end
$var wire 1 ! sft $end
$var reg 16 H data_out [15:0] $end
$upscope $end
$upscope $end
$upscope $end
$enddefinitions $end
#0
$dumpvars
bx H
xG
bx F
xE
bx D
bx C
bx B
bx A
bx @
bx ?
bx >
bx =
x<
bx ;
bx :
bx 9
bx 8
bx 7
bx 6
b0 5
x4
x3
bx 2
01
x0
0/
0.
0-
x,
0+
x*
0)
0(
0'
x&
0%
bx $
x#
0"
0!
$end
#3
13
#5
1(
1&
1-
1/
b1 5
11
#10
01
#11
b1000000000000110 2
b1000000000000110 6
b1000000000000110 C
b1000000000000110 F
#15
1'
0(
0&
0-
0/
b1000000000000110 8
b1000000000000110 =
b1000000000000110 A
0G
0<
b10 5
0*
b10000 7
b10000 B
b1000000000000110 :
b1000000000000110 @
b1000000000000110 D
0#
b0xxxxxxxxxxxxxxxx $
b0 ;
b0 >
b0 ?
11
#20
01
#21
b1101 2
b1101 6
b1101 C
b1101 F
#25
14
1E
b1101 $
b1101 9
b1101 H
11
#27
b111111111111010 8
b111111111111010 =
b111111111111010 A
0,
0'
00
1)
b100 5
#30
01
#35
b1111111111110100 8
b1111111111110100 =
b1111111111110100 A
1,
0)
1%
1!
1"
b1111111111110100000000000001101 $
b111111111111010 ;
b111111111111010 >
b111111111111010 ?
b101 5
11
#40
01
#45
b1011111111110111 8
b1011111111110111 =
b1011111111110111 A
1G
04
0E
b11111111111101 ;
b11111111111101 >
b11111111111101 ?
b111111111111010000000000000110 $
b110 9
b110 H
1#
b1111 7
b1111 B
11
#47
b1100000000000011 8
b1100000000000011 =
b1100000000000011 A
0,
0!
0"
10
1)
b11 5
#50
01
#55
b100000000001001 8
b100000000001001 =
b100000000001001 A
1<
1,
0)
1!
1"
0#
b11000000000000110000000000000110 $
b1100000000000011 ;
b1100000000000011 >
b1100000000000011 ?
b101 5
11
#60
01
#65
b110000000000111 8
b110000000000111 =
b110000000000111 A
14
1E
b1110000000000001 ;
b1110000000000001 >
b1110000000000001 ?
b11100000000000011000000000000011 $
b1000000000000011 9
b1000000000000011 H
b1110 7
b1110 B
11
#67
b101111111111011 8
b101111111111011 =
b101111111111011 A
0,
0!
0"
00
1)
b100 5
#70
01
#75
b1101111111110101 8
b1101111111110101 =
b1101111111110101 A
0<
1,
0)
1!
1"
1#
b1011111111110111000000000000011 $
b101111111111011 ;
b101111111111011 >
b101111111111011 ?
b101 5
11
#80
01
#85
b1010111111110111 8
b1010111111110111 =
b1010111111110111 A
b10111111111101 ;
b10111111111101 >
b10111111111101 ?
b101111111111011100000000000001 $
b1100000000000001 9
b1100000000000001 H
b1101 7
b1101 B
11
#90
01
#95
04
0E
b1001011111111000 8
b1001011111111000 =
b1001011111111000 A
0G
b1100 7
b1100 B
b1110000000000000 9
b1110000000000000 H
b10111111111101110000000000000 $
b1011111111110 ;
b1011111111110 >
b1011111111110 ?
11
#97
b1001100000000100 8
b1001100000000100 =
b1001100000000100 A
0,
0!
0"
10
1)
b11 5
#100
01
#105
b1100000001010 8
b1100000001010 =
b1100000001010 A
1<
1,
0)
1!
1"
b10011000000001001110000000000000 $
b1001100000000100 ;
b1001100000000100 >
b1001100000000100 ?
0#
b101 5
11
#110
01
#115
b100110000001000 8
b100110000001000 =
b100110000001000 A
b1011 7
b1011 B
b111000000000000 9
b111000000000000 H
b11001100000000100111000000000000 $
b1100110000000010 ;
b1100110000000010 >
b1100110000000010 ?
11
#120
01
#125
b110011000000111 8
b110011000000111 =
b110011000000111 A
1G
b1110011000000001 ;
b1110011000000001 >
b1110011000000001 ?
b11100110000000010011100000000000 $
b11100000000000 9
b11100000000000 H
b1010 7
b1010 B
11
#130
01
#135
b111001100000110 8
b111001100000110 =
b111001100000110 A
0G
b1001 7
b1001 B
b1001110000000000 9
b1001110000000000 H
b11110011000000001001110000000000 $
b1111001100000000 ;
b1111001100000000 >
b1111001100000000 ?
11
#140
01
#145
b111100110000110 8
b111100110000110 =
b111100110000110 A
b1111100110000000 ;
b1111100110000000 >
b1111100110000000 ?
b11111001100000000100111000000000 $
b100111000000000 9
b100111000000000 H
b1000 7
b1000 B
11
#150
01
#155
b111110011000110 8
b111110011000110 =
b111110011000110 A
b111 7
b111 B
b10011100000000 9
b10011100000000 H
b11111100110000000010011100000000 $
b1111110011000000 ;
b1111110011000000 >
b1111110011000000 ?
11
#160
01
#165
b111111001100110 8
b111111001100110 =
b111111001100110 A
b1111111001100000 ;
b1111111001100000 >
b1111111001100000 ?
b11111110011000000001001110000000 $
b1001110000000 9
b1001110000000 H
b110 7
b110 B
11
#170
01
#175
b111111100110110 8
b111111100110110 =
b111111100110110 A
b101 7
b101 B
b100111000000 9
b100111000000 H
b11111111001100000000100111000000 $
b1111111100110000 ;
b1111111100110000 >
b1111111100110000 ?
11
#180
01
#185
b111111110011110 8
b111111110011110 =
b111111110011110 A
b1111111110011000 ;
b1111111110011000 >
b1111111110011000 ?
b11111111100110000000010011100000 $
b10011100000 9
b10011100000 H
b100 7
b100 B
11
#190
01
#195
b111111111010010 8
b111111111010010 =
b111111111010010 A
b11 7
b11 B
b1001110000 9
b1001110000 H
b11111111110011000000001001110000 $
b1111111111001100 ;
b1111111111001100 >
b1111111111001100 ?
11
#200
01
#205
b111111111101100 8
b111111111101100 =
b111111111101100 A
b1111111111100110 ;
b1111111111100110 >
b1111111111100110 ?
b11111111111001100000000100111000 $
b100111000 9
b100111000 H
b10 7
b10 B
11
#210
01
#215
b111111111111001 8
b111111111111001 =
b111111111111001 A
1G
b1 7
b1 B
b10011100 9
b10011100 H
b11111111111100110000000010011100 $
b1111111111110011 ;
b1111111111110011 >
b1111111111110011 ?
11
#220
01
#225
b111111111111111 8
b111111111111111 =
b111111111111111 A
b1111111111111001 ;
b1111111111111001 >
b1111111111111001 ?
b11111111111110011000000001001110 $
b1000000001001110 9
b1000000001001110 H
1*
b0 7
b0 B
11
#227
1+
b110 5
#230
01
#235
14
1E
b1000000000000010 8
b1000000000000010 =
b1000000000000010 A
0G
0*
b11111 7
b11111 B
b1100000000100111 9
b1100000000100111 H
b11111111111111001100000000100111 $
b1111111111111100 ;
b1111111111111100 >
b1111111111111100 ?
11
#240
01
#245
b1000000000000100 8
b1000000000000100 =
b1000000000000100 A
b1111111111111110 ;
b1111111111111110 >
b1111111111111110 ?
b11111111111111100110000000010011 $
b110000000010011 9
b110000000010011 H
1#
b11110 7
b11110 B
11
#250
01
#255
b1000000000000101 8
b1000000000000101 =
b1000000000000101 A
1G
b11101 7
b11101 B
b11000000001001 9
b11000000001001 H
b11111111111111110011000000001001 $
b1111111111111111 ;
b1111111111111111 >
b1111111111111111 ?
11
#260
01
#265
04
0E
b11111111111111111001100000000100 $
b1001100000000100 9
b1001100000000100 H
b11100 7
b11100 B
11
#270
01
#275
b11011 7
b11011 B
0#
b11111111111111111100110000000010 $
b1100110000000010 9
b1100110000000010 H
11
#280
01
#285
14
1E
b11111111111111111110011000000001 $
b1110011000000001 9
b1110011000000001 H
b11010 7
b11010 B
11
#290
01
#295
04
0E
b11001 7
b11001 B
1#
b11111111111111111111001100000000 $
b1111001100000000 9
b1111001100000000 H
11
#300
01
#305
b11111111111111111111100110000000 $
b1111100110000000 9
b1111100110000000 H
0#
b11000 7
b11000 B
11
#310
01
#315
b10111 7
b10111 B
b11111111111111111111110011000000 $
b1111110011000000 9
b1111110011000000 H
11
#320
01
#325
b11111111111111111111111001100000 $
b1111111001100000 9
b1111111001100000 H
b10110 7
b10110 B
11
#330
01
#335
b10101 7
b10101 B
b11111111111111111111111100110000 $
b1111111100110000 9
b1111111100110000 H
11
#340
01
#345
b11111111111111111111111110011000 $
b1111111110011000 9
b1111111110011000 H
b10100 7
b10100 B
11
#350
01
#355
b10011 7
b10011 B
b11111111111111111111111111001100 $
b1111111111001100 9
b1111111111001100 H
11
#360
01
#365
b11111111111111111111111111100110 $
b1111111111100110 9
b1111111111100110 H
b10010 7
b10010 B
11
#370
01
#375
14
1E
b10001 7
b10001 B
b11111111111111111111111111110011 $
b1111111111110011 9
b1111111111110011 H
11
#380
01
#385
b11111111111111111111111111111001 $
b1111111111111001 9
b1111111111111001 H
1#
b10000 7
b10000 B
11
#390
01
#395
04
0E
b1111 7
b1111 B
b11111111111111111111111111111100 $
b1111111111111100 9
b1111111111111100 H
11
#400
01
#405
b11111111111111111111111111111110 $
b1111111111111110 9
b1111111111111110 H
0#
b1110 7
b1110 B
11
#410
01
#415
14
1E
b1101 7
b1101 B
b11111111111111111111111111111111 $
b1111111111111111 9
b1111111111111111 H
11
#420
01
#425
1#
b1100 7
b1100 B
11
#430
01
#435
b1011 7
b1011 B
11
#440
01
#445
b1010 7
b1010 B
11
#450
01
#455
b1001 7
b1001 B
11
#460
01
#465
b1000 7
b1000 B
11
#470
01
#475
b111 7
b111 B
11
#480
01
#485
b110 7
b110 B
11
#490
01
#495
b101 7
b101 B
11
#500
01
#505
b100 7
b100 B
11
#510
01
#515
b11 7
b11 B
11
#520
01
#525
b10 7
b10 B
11
#530
01
#535
b1 7
b1 B
11
#540
01
#545
1*
b0 7
b0 B
11
#550
01
#555
0*
b11111 7
b11111 B
11
#560
01
#565
b11110 7
b11110 B
11
#570
01
#575
b11101 7
b11101 B
11
#580
01
#585
b11100 7
b11100 B
11
#590
01
#595
b11011 7
b11011 B
11
#600
01
#605
b11010 7
b11010 B
11
#610
01
#615
b11001 7
b11001 B
11
#620
01
#625
b11000 7
b11000 B
11
#630
01
#635
b10111 7
b10111 B
11
#640
01
#645
b10110 7
b10110 B
11
#650
01
#655
b10101 7
b10101 B
11
#660
01
#665
b10100 7
b10100 B
11
#670
01
#675
b10011 7
b10011 B
11
#680
01
#685
b10010 7
b10010 B
11
#690
01
#695
b10001 7
b10001 B
11
#700
01
#705
b10000 7
b10000 B
11
#710
01
#715
b1111 7
b1111 B
11
#720
01
#725
b1110 7
b1110 B
11
#730
01
#735
b1101 7
b1101 B
11
#740
01
#745
b1100 7
b1100 B
11
#750
01
#755
b1011 7
b1011 B
11
#760
01
#765
b1010 7
b1010 B
11
#770
01
#775
b1001 7
b1001 B
11
#780
01
#785
b1000 7
b1000 B
11
#790
01
#795
b111 7
b111 B
11
#800
01
#805
b110 7
b110 B
11
#810
01
#815
b101 7
b101 B
11
#820
01
#825
b100 7
b100 B
11
#830
01
#835
b11 7
b11 B
11
#840
01
#845
b10 7
b10 B
11
#850
01
#855
b1 7
b1 B
11
#860
01
#865
1*
b0 7
b0 B
11
#870
01
#875
0*
b11111 7
b11111 B
11
#880
01
#885
b11110 7
b11110 B
11
#890
01
#895
b11101 7
b11101 B
11
#900
01
#905
b11100 7
b11100 B
11
#910
01
#915
b11011 7
b11011 B
11
#920
01
#925
b11010 7
b11010 B
11
#930
01
#935
b11001 7
b11001 B
11
#940
01
#945
b11000 7
b11000 B
11
#950
01
#955
b10111 7
b10111 B
11
#960
01
#965
b10110 7
b10110 B
11
#970
01
#975
b10101 7
b10101 B
11
#980
01
#985
b10100 7
b10100 B
11
#990
01
#995
b10011 7
b10011 B
11
