dut.vcd
$date
	Thu Apr 30 14:37:14 2020
$end
$version
	Icarus Verilog
$end
$timescale
	1s
$end
$scope module ula_bench $end
$var wire 1 ! out $end
$var wire 1 " carryout $end
$var reg 1 # A $end
$var reg 1 $ B $end
$var reg 1 % ENA $end
$var reg 1 & ENB $end
$var reg 1 ' F0 $end
$var reg 1 ( F1 $end
$var reg 1 ) INC $end
$var reg 1 * INVA $end
$scope module DUT $end
$var wire 1 # A $end
$var wire 1 $ B $end
$var wire 1 % ENA $end
$var wire 1 & ENB $end
$var wire 1 ' F0 $end
$var wire 1 ( F1 $end
$var wire 1 ) INC $end
$var wire 1 * INVA $end
$var wire 1 ! out $end
$var wire 1 + wA $end
$var wire 1 , wB $end
$var wire 1 - sum $end
$var wire 3 . out_lu [2:0] $end
$var wire 4 / enable_wire [3:0] $end
$var wire 1 " carryout $end
$scope module dec2x4 $end
$var wire 1 ' in0 $end
$var wire 1 ( in1 $end
$var wire 4 0 dout [3:0] $end
$upscope $end
$scope module fa $end
$var wire 1 + A $end
$var wire 1 , B $end
$var wire 1 ) cin $end
$var wire 1 " cout $end
$var wire 1 1 ena $end
$var wire 1 - sum $end
$var wire 1 2 t1 $end
$var wire 1 3 t2 $end
$var wire 1 4 t3 $end
$var wire 1 5 t4 $end
$upscope $end
$scope module lu $end
$var wire 1 + A $end
$var wire 1 6 AandB $end
$var wire 1 7 AorB $end
$var wire 1 , B $end
$var wire 3 8 ena [2:0] $end
$var wire 1 9 invB $end
$var wire 3 : out [2:0] $end
$upscope $end
$upscope $end
$upscope $end
$enddefinitions $end
#0
$dumpvars
bx :
x9
bx 8
x7
x6
x5
x4
x3
x2
x1
bx 0
bx /
bx .
x-
x,
x+
x*
x)
x(
x'
x&
x%
1$
1#
x"
x!
$end
#10
1!
13
b10 .
b10 :
0-
0"
12
04
06
17
19
b10 8
01
05
1+
0,
b10 /
b10 0
0)
0*
0&
1%
1(
0'
#20
09
0+
1,
1&
0%
#30
0!
03
b0 .
b0 :
02
07
19
0,
1*
0&
1%
#40
16
17
09
b100 8
1+
1,
b100 /
b100 0
0*
1&
0(
1'
#50
1"
b0 8
14
11
b1000 /
b1000 0
1(
#60
1!
1-
13
1)
#70
0!
0-
03
15
1"
12
04
06
19
0,
0&
#80
09
0+
1,
1&
0%
#90
1*
1%
#100
0!
02
14
16
0-
1"
1+
03
05
0)
0%
#110
1!
0"
1-
04
06
07
19
0+
13
0,
1)
0&
1%
#120
b1 .
b1 :
1!
b1 8
0-
16
17
09
01
03
1+
1,
b1 /
b1 0
0)
0*
1&
0(
0'
#130
b10 .
b10 :
b10 8
b10 /
b10 0
1(
#140
0!
b0 .
b0 :
06
07
19
0+
0,
0&
0%
#150
1!
b0 8
1-
11
13
b1000 /
b1000 0
1)
1'
#160
1!
1-
12
17
13
1+
0)
1*
